title-new,description,Date,tags,Creator,Creator,Creator,Creator,Program number,file,filename-thumbnail,filename,duration,format,category,category-lower case,"subject-Hutchins, Robert Maynard, 1899-1977 ",subject law and order,subject- the media,subject war,subject peace,subject-science and technology,subject-science and technology,subject freedom of speech,subject government and politics,Subject Ethnicity,Subject Race,subject religion,subject economics,subject social issues,Creator,Subject,Source,Provenance,Rights
"On Revolution, program 17, part a","Philosopher Scott Buchanan discusses the nature and source of revolution. When we in the West speak of revolution, we most often mean the kind symbolized by the American and French upheavals. But these were very different from the politicized peasant revolutions going on in the 1960s. Mr. Buchanan's view of revolution is of a process of education in which the revolutionaries change and learn as their actions change a situation. [ca. 1963]. ",ca. 1963,"International issues,Dissent,Center for the Study of Democratic Institutions,Scott Milross Buchanan","Buchanan, Scott Milross, 1895-1968",,,,17,7505,http://www.library.ucsb.edu/speccoll/digital/csdi-audio2.jpg,http://cylinders.library.ucsb.edu/audio/7000/a7505/cusb-a7505b.mp3,29:23:00,Open reel,International Issues;Dissent,International issues;Dissent,,,,,,,,,,,,,,,Center for the Study of Democratic Institutions,Center for the Study of Democratic Institutions,"Center for the Study of Democratic Institutions Collection, 1950-1991 (Mss 18), Department of Special Collections at the University of California, Santa Barbara Library","Bulk of the collection donated by the Center after it ceased operations at UCSB in 1987. Subsequent donations by Harry S. Ashmore and Otis L. Graham, Jr. , which are found in their respective sections of the Administrators' Files, 1995.","Transmission or reproduction of materials protected by copyright beyond that allowed by fair use requires the written permission of the copyright owners. In addition, the reproduction of some materials may be restricted by terms of gift or purchase agreem"
"On Revolution, program 17, part b","Philosopher Scott Buchanan discusses the nature and source of revolution. When we in the West speak of revolution, we most often mean the kind symbolized by the American and French upheavals. But these were very different from the politicized peasant revolutions going on in the 1960s. Mr. Buchanan's view of revolution is of a process of education in which the revolutionaries change and learn as their actions change a situation. [ca. 1963]. ",ca. 1963,"International issues,Dissent,Center for the Study of Democratic Institutions,Scott Milross Buchanan","Buchanan, Scott Milross, 1895-1968",,,,17,7506,http://www.library.ucsb.edu/speccoll/digital/csdi-audio2.jpg,http://cylinders.library.ucsb.edu/audio/7000/a7506/cusb-a7506b.mp3,28:17:00,Open reel,International Issues;Dissent,International issues;Dissent,,,,,,,,,,,,,,,Center for the Study of Democratic Institutions,Center for the Study of Democratic Institutions,"Center for the Study of Democratic Institutions Collection, 1950-1991 (Mss 18), Department of Special Collections at the University of California, Santa Barbara Library","Bulk of the collection donated by the Center after it ceased operations at UCSB in 1987. Subsequent donations by Harry S. Ashmore and Otis L. Graham, Jr. , which are found in their respective sections of the Administrators' Files, 1995.","Transmission or reproduction of materials protected by copyright beyond that allowed by fair use requires the written permission of the copyright owners. In addition, the reproduction of some materials may be restricted by terms of gift or purchase agreem"
"The Negro Revolution in 1965, program 128, part a","Civil rights activist Bayard Rustin discusses the goals and tactics of the Black protest movement in the wake of the 1963 March on Washington, which he organized. Followed by discussion. Oct. 26, 1964. ",1964-10-26,"Dissent,Race and ethnicity,Center for the Study of Democratic Institutions,Bayard Rustin","Rustin, Bayard, 1912-1987",,,,128,7691,http://www.library.ucsb.edu/speccoll/digital/csdi-audio2.jpg,http://cylinders.library.ucsb.edu/audio/7000/a7691/cusb-a7691b.mp3,27:02:00,Open reel,Dissent;Race and Ethnicity,Dissent;Race and ethnicity,,,,,,,,,,Ethnicity,Race,,,,Center for the Study of Democratic Institutions,Center for the Study of Democratic Institutions,"Center for the Study of Democratic Institutions Collection, 1950-1991 (Mss 18), Department of Special Collections at the University of California, Santa Barbara Library","Bulk of the collection donated by the Center after it ceased operations at UCSB in 1987. Subsequent donations by Harry S. Ashmore and Otis L. Graham, Jr. , which are found in their respective sections of the Administrators' Files, 1995.","Transmission or reproduction of materials protected by copyright beyond that allowed by fair use requires the written permission of the copyright owners. In addition, the reproduction of some materials may be restricted by terms of gift or purchase agreem"
"The Negro Revolution in 1965, program 128, part b","Civil rights activist Bayard Rustin discusses the goals and tactics of the Black protest movement in the wake of the 1963 March on Washington, which he organized. Followed by discussion. Oct. 26, 1964. ",1964,"Dissent,Race and ethnicity,Center for the Study of Democratic Institutions,Bayard Rustin","Rustin, Bayard, 1912-1987",,,,128,7692,http://www.library.ucsb.edu/speccoll/digital/csdi-audio2.jpg,http://cylinders.library.ucsb.edu/audio/7000/a7692/cusb-a7692b.mp3,28:26:00,Open reel,Dissent;Race and Ethnicity,Dissent;Race and ethnicity,,,,,,,,,,Ethnicity,Race,,,,Center for the Study of Democratic Institutions,Center for the Study of Democratic Institutions,"Center for the Study of Democratic Institutions Collection, 1950-1991 (Mss 18), Department of Special Collections at the University of California, Santa Barbara Library","Bulk of the collection donated by the Center after it ceased operations at UCSB in 1987. Subsequent donations by Harry S. Ashmore and Otis L. Graham, Jr. , which are found in their respective sections of the Administrators' Files, 1995.","Transmission or reproduction of materials protected by copyright beyond that allowed by fair use requires the written permission of the copyright owners. In addition, the reproduction of some materials may be restricted by terms of gift or purchase agreem"
"Slightly Autobiographical: Michael Harrington, program 145, part a","Associated with the Fund for the Republic since 1954, Mr. Harrington examines the early influences that led him to his many contributions to revolutionary thought in America, in this conversation with John Cogley. Aug. 1965. ",1965-08,"Dissent,Center for the Study of Democratic Institutions,Michael Harrington","Harrington, Michael, 1928-1989","Cogley, John",,,145,7720,http://www.library.ucsb.edu/speccoll/digital/csdi-audio2.jpg,http://cylinders.library.ucsb.edu/audio/7000/a7720/cusb-a7720b.mp3,22:32,Open reel,Dissent,Dissent,,,,,,,,,,,,,,,Center for the Study of Democratic Institutions,Center for the Study of Democratic Institutions,"Center for the Study of Democratic Institutions Collection, 1950-1991 (Mss 18), Department of Special Collections at the University of California, Santa Barbara Library","Bulk of the collection donated by the Center after it ceased operations at UCSB in 1987. Subsequent donations by Harry S. Ashmore and Otis L. Graham, Jr. , which are found in their respective sections of the Administrators' Files, 1995.","Transmission or reproduction of materials protected by copyright beyond that allowed by fair use requires the written permission of the copyright owners. In addition, the reproduction of some materials may be restricted by terms of gift or purchase agreem"
"Slightly Autobiographical: Michael Harrington, program 145, part b","Associated with the Fund for the Republic since 1954, Mr. Harrington examines the early influences that led him to his many contributions to revolutionary thought in America, in this conversation with John Cogley. Aug. 1965. ",1965,"Dissent,Center for the Study of Democratic Institutions,Michael Harrington","Harrington, Michael, 1928-1989 ","Cogley, John",,,145,7721,http://www.library.ucsb.edu/speccoll/digital/csdi-audio2.jpg,http://cylinders.library.ucsb.edu/audio/7000/a7721/cusb-a7721b.mp3,20:09,Open reel,Dissent,Dissent,,,,,,,,,,,,,,,Center for the Study of Democratic Institutions,Center for the Study of Democratic Institutions,"Center for the Study of Democratic Institutions Collection, 1950-1991 (Mss 18), Department of Special Collections at the University of California, Santa Barbara Library","Bulk of the collection donated by the Center after it ceased operations at UCSB in 1987. Subsequent donations by Harry S. Ashmore and Otis L. Graham, Jr. , which are found in their respective sections of the Administrators' Files, 1995.","Transmission or reproduction of materials protected by copyright beyond that allowed by fair use requires the written permission of the copyright owners. In addition, the reproduction of some materials may be restricted by terms of gift or purchase agreem"
"The Role of Social Criticism - I, program 193, part a","Jules Feiffer, Paul Jacobs, and Edward P.Morgan discuss the responsibility of the social critic in America in these excerpts from a two-day conference at the Center. Original title: ""Don't Make Waves."" June 18, 1965. ",1965-06-18,"Dissent,Center for the Study of Democratic Institutions,Jules Feiffer,Paul Jacobs,Edward P. Morgan","Feiffer, Jules","Jacobs, Paul, 1918-","Morgan, Edward P., 1910-1993",,193,7776,http://www.library.ucsb.edu/speccoll/digital/csdi-audio2.jpg,http://cylinders.library.ucsb.edu/audio/7000/a7776/cusb-a7776b.mp3,28:35:00,Open reel,Dissent,Dissent,,,,,,,,,,,,,,,Center for the Study of Democratic Institutions,Center for the Study of Democratic Institutions,"Center for the Study of Democratic Institutions Collection, 1950-1991 (Mss 18), Department of Special Collections at the University of California, Santa Barbara Library","Bulk of the collection donated by the Center after it ceased operations at UCSB in 1987. Subsequent donations by Harry S. Ashmore and Otis L. Graham, Jr. , which are found in their respective sections of the Administrators' Files, 1995.","Transmission or reproduction of materials protected by copyright beyond that allowed by fair use requires the written permission of the copyright owners. In addition, the reproduction of some materials may be restricted by terms of gift or purchase agreem"
"The Role of Social Criticism - II, program 193, part a","Jules Feiffer, Paul Jacobs, and Edward P. Morgan defend their views in this discussion session with Center fellows and guests. Original title: ""Don't Make Waves."" June 19, 1965. ",1965-06-19,"Dissent,Center for the Study of Democratic Institutions,Jules Feiffer,Paul Jacobs,Edward P. Morgan","Feiffer, Jules","Jacobs, Paul, 1918-","Morgan, Edward P., 1910-1993",,193,7777,http://www.library.ucsb.edu/speccoll/digital/csdi-audio2.jpg,http://cylinders.library.ucsb.edu/audio/7000/a7777/cusb-a7777b.mp3,27:42:00,Open reel,Dissent,Dissent,,,,,,,,,,,,,,,Center for the Study of Democratic Institutions,Center for the Study of Democratic Institutions,"Center for the Study of Democratic Institutions Collection, 1950-1991 (Mss 18), Department of Special Collections at the University of California, Santa Barbara Library","Bulk of the collection donated by the Center after it ceased operations at UCSB in 1987. Subsequent donations by Harry S. Ashmore and Otis L. Graham, Jr. , which are found in their respective sections of the Administrators' Files, 1995.","Transmission or reproduction of materials protected by copyright beyond that allowed by fair use requires the written permission of the copyright owners. In addition, the reproduction of some materials may be restricted by terms of gift or purchase agreem"
"The Role of Social Criticism - I, program 193, part b","Jules Feiffer, Paul Jacobs, and Edward P.Morgan discuss the responsibility of the social critic in America in these excerpts from a two-day conference at the Center. Original title: ""Don't Make Waves."" June 18, 1965. ",1965,"Dissent,Center for the Study of Democratic Institutions,Jules Feiffer,Paul Jacobs,Edward P. Morgan","Feiffer, Jules","Jacobs, Paul, 1918-","Morgan, Edward P., 1910-1993",,193,7778,http://www.library.ucsb.edu/speccoll/digital/csdi-audio2.jpg,http://cylinders.library.ucsb.edu/audio/7000/a7778/cusb-a7778b.mp3,28:48:00,Open reel,Dissent,Dissent,,,,,,,,,,,,,,,Center for the Study of Democratic Institutions,Center for the Study of Democratic Institutions,"Center for the Study of Democratic Institutions Collection, 1950-1991 (Mss 18), Department of Special Collections at the University of California, Santa Barbara Library","Bulk of the collection donated by the Center after it ceased operations at UCSB in 1987. Subsequent donations by Harry S. Ashmore and Otis L. Graham, Jr. , which are found in their respective sections of the Administrators' Files, 1995.","Transmission or reproduction of materials protected by copyright beyond that allowed by fair use requires the written permission of the copyright owners. In addition, the reproduction of some materials may be restricted by terms of gift or purchase agreem"
"The Role of Social Criticism - II, program 193, part b","Jules Feiffer, Paul Jacobs, and Edward P. Morgan defend their views in this discussion session with Center fellows and guests. Original title: ""Don't Make Waves."" June 19, 1965. ",1965,"Dissent,Center for the Study of Democratic Institutions,Jules Feiffer,Paul Jacobs,Edward P. Morgan","Feiffer, Jules","Jacobs, Paul, 1918-","Morgan, Edward P., 1910-1993",,193,7779,http://www.library.ucsb.edu/speccoll/digital/csdi-audio2.jpg,http://cylinders.library.ucsb.edu/audio/7000/a7779/cusb-a7779b.mp3,30:38:00,Open reel,Dissent,Dissent,,,,,,,,,,,,,,,Center for the Study of Democratic Institutions,Center for the Study of Democratic Institutions,"Center for the Study of Democratic Institutions Collection, 1950-1991 (Mss 18), Department of Special Collections at the University of California, Santa Barbara Library","Bulk of the collection donated by the Center after it ceased operations at UCSB in 1987. Subsequent donations by Harry S. Ashmore and Otis L. Graham, Jr. , which are found in their respective sections of the Administrators' Files, 1995.","Transmission or reproduction of materials protected by copyright beyond that allowed by fair use requires the written permission of the copyright owners. In addition, the reproduction of some materials may be restricted by terms of gift or purchase agreem"
"What Kind of World?, program 208",Robert M. Hutchins reads two of his weekly newspaper editorials. Discussion includes: (1) the trial of the Chicago Seven; and (2) the riots in Isla Vista by students of the University of California Santa Barbara. Each is about four minutes long. Mar. 1970. ,1970-03,"Dissent,Robert Maynard Hutchins and the history of CSDI,Center for the Study of Democratic Institutions","Hutchins, Robert Maynard, 1899-1977",,,,208,7796,http://www.library.ucsb.edu/speccoll/digital/csdi-audio2.jpg,http://cylinders.library.ucsb.edu/audio/7000/a7796/cusb-a7796b.mp3,8:36,Open reel,Dissent;Hutchins [Robert Maynard] and the History of CSDI,Dissent;Robert Maynard Hutchins and the history of CSDI,"Hutchins, Robert Maynard, 1899-1977 ",,,,,,,,,,,,,,Center for the Study of Democratic Institutions,Center for the Study of Democratic Institutions,"Center for the Study of Democratic Institutions Collection, 1950-1991 (Mss 18), Department of Special Collections at the University of California, Santa Barbara Library","Bulk of the collection donated by the Center after it ceased operations at UCSB in 1987. Subsequent donations by Harry S. Ashmore and Otis L. Graham, Jr. , which are found in their respective sections of the Administrators' Files, 1995.","Transmission or reproduction of materials protected by copyright beyond that allowed by fair use requires the written permission of the copyright owners. In addition, the reproduction of some materials may be restricted by terms of gift or purchase agreem"
"War and Revolution Today, program 226, part a","Walter Millis, a noted war historian, argues against two long-held tenets: first, that revolution is a popular uprising against unbearable tyranny; and, second, that war is a conflict of organized armies in which victory is resolved through conquest of one by the other. He asks for new definitions to fit contemporary facts. Discussion with Jon Alexander, Scott Buchanan, W. H. Ferry, Harrop A. Freeman, Robert M. Hutchins, Raghavan Iyer, Vukan Kuic, Irving Laucks, Richard Lichtman, Donald McDonald, Stanley K. Sheinbaum, Rexford G. Tugwell, John Wilkinson, and Robert Woetzel. Sept. 23, 1965. ",1965-09-23,"Dissent,Peace and war,Center for the Study of Democratic Institutions,Stanley K. Sheinbaum,Walter Millis,Scott Milross Buchanan,W. H. Ferry","Sheinbaum, Stanley K.","Millis, Walter, 1899-1968","Buchanan, Scott Milross, 1895-1968","Ferry, W. H. (Wilbur Hugh)",226,7798,http://www.library.ucsb.edu/speccoll/digital/csdi-audio2.jpg,http://cylinders.library.ucsb.edu/audio/7000/a7798/cusb-a7798b.mp3,27:30:00,Open reel,Dissent;Peace and War,Dissent;Peace and war,,,,War,Peace,,,,,,,,,,Center for the Study of Democratic Institutions,Center for the Study of Democratic Institutions,"Center for the Study of Democratic Institutions Collection, 1950-1991 (Mss 18), Department of Special Collections at the University of California, Santa Barbara Library","Bulk of the collection donated by the Center after it ceased operations at UCSB in 1987. Subsequent donations by Harry S. Ashmore and Otis L. Graham, Jr. , which are found in their respective sections of the Administrators' Files, 1995.","Transmission or reproduction of materials protected by copyright beyond that allowed by fair use requires the written permission of the copyright owners. In addition, the reproduction of some materials may be restricted by terms of gift or purchase agreem"
"War and Revolution Today, program 226, part b","Walter Millis, a noted war historian, argues against two long-held tenets: first, that revolution is a popular uprising against unbearable tyranny; and, second, that war is a conflict of organized armies in which victory is resolved through conquest of one by the other. He asks for new definitions to fit contemporary facts. Discussion with Jon Alexander, Scott Buchanan, W. H. Ferry, Harrop A. Freeman, Robert M. Hutchins, Raghavan Iyer, Vukan Kuic, Irving Laucks, Richard Lichtman, Donald McDonald, Stanley K. Sheinbaum, Rexford G. Tugwell, John Wilkinson, and Robert Woetzel. Sept. 23, 1965. ",1965,"Dissent,Peace and war,Center for the Study of Democratic Institutions,Stanley K. Sheinbaum","Sheinbaum, Stanley K.","Millis, Walter, 1899-1968","Buchanan, Scott Milross, 1895-1968","Ferry, W. H. (Wilbur Hugh)",226,7799,http://www.library.ucsb.edu/speccoll/digital/csdi-audio2.jpg,http://cylinders.library.ucsb.edu/audio/7000/a7799/cusb-a7799b.mp3,27:43:00,Open reel,Dissent;Peace and War,Dissent;Peace and war,,,,War,Peace,,,,,,,,,,Center for the Study of Democratic Institutions,Center for the Study of Democratic Institutions,"Center for the Study of Democratic Institutions Collection, 1950-1991 (Mss 18), Department of Special Collections at the University of California, Santa Barbara Library","Bulk of the collection donated by the Center after it ceased operations at UCSB in 1987. Subsequent donations by Harry S. Ashmore and Otis L. Graham, Jr. , which are found in their respective sections of the Administrators' Files, 1995.","Transmission or reproduction of materials protected by copyright beyond that allowed by fair use requires the written permission of the copyright owners. In addition, the reproduction of some materials may be restricted by terms of gift or purchase agreem"
"The Lucid Interval, program 258, part a","In this discussion moderated by John R. Seeley, Joan Baez, Hallock Hoffman, Raghavan Iyer, and Ira Sandperl speak of their dedication to the principle of non-violence and how Gandhi influenced their lives. Aug. 18, 1966. ",1966,"Dissent,Peace and war,Center for the Study of Democratic Institutions,John R. Seeley,Hallock B. Hoffman,Raghavan Narasimhan Iyer","Seeley, John R.",,"Hoffman, Hallock B.","Iyer, Raghavan Narasimhan",258,7852.1,http://www.library.ucsb.edu/speccoll/digital/csdi-audio2.jpg,http://cylinders.library.ucsb.edu/audio/7000/a7852.1/cusb-a7852.1b.mp3,22:02,Open reel,Dissent;Peace and War,Dissent;Peace and war,,,,War,Peace,,,,,,,,,,Center for the Study of Democratic Institutions,Center for the Study of Democratic Institutions,"Center for the Study of Democratic Institutions Collection, 1950-1991 (Mss 18), Department of Special Collections at the University of California, Santa Barbara Library","Bulk of the collection donated by the Center after it ceased operations at UCSB in 1987. Subsequent donations by Harry S. Ashmore and Otis L. Graham, Jr. , which are found in their respective sections of the Administrators' Files, 1995.","Transmission or reproduction of materials protected by copyright beyond that allowed by fair use requires the written permission of the copyright owners. In addition, the reproduction of some materials may be restricted by terms of gift or purchase agreem"
"The Lucid Interval, program 258, part b","In this discussion moderated by John R. Seeley, Joan Baez, Hallock Hoffman, Raghavan Iyer, and Ira Sandperl speak of their dedication to the principle of non-violence and how Gandhi influenced their lives. Aug. 18, 1966. ",1966,"Dissent,Peace and war,Center for the Study of Democratic Institutions,John R. Seeley,Hallock B. Hoffman,Raghavan Narasimhan Iyer","Seeley, John R.",,"Hoffman, Hallock B.","Iyer, Raghavan Narasimhan",258,7852.2,http://www.library.ucsb.edu/speccoll/digital/csdi-audio2.jpg,http://cylinders.library.ucsb.edu/audio/7000/a7852.2/cusb-a7852.2b.mp3,22:19,Open reel,Dissent;Peace and War,Dissent;Peace and war,,,,War,Peace,,,,,,,,,,Center for the Study of Democratic Institutions,Center for the Study of Democratic Institutions,"Center for the Study of Democratic Institutions Collection, 1950-1991 (Mss 18), Department of Special Collections at the University of California, Santa Barbara Library","Bulk of the collection donated by the Center after it ceased operations at UCSB in 1987. Subsequent donations by Harry S. Ashmore and Otis L. Graham, Jr. , which are found in their respective sections of the Administrators' Files, 1995.","Transmission or reproduction of materials protected by copyright beyond that allowed by fair use requires the written permission of the copyright owners. In addition, the reproduction of some materials may be restricted by terms of gift or purchase agreem"
"Blacklist: A Failure in Political Imagination, program 260","In this interviewed conducted by radio personality Dale Minor, screenwriter Millard Lampell and entertainer-commentator John Henry Faulk, both of whom had been blacklisted, argue that the practice continues in the 1960s in a more insidious, subtle, and dangerous form than its 1950s predecessor. Nov. 1966. ",1966,"Dissent,The media,Center for the Study of Democratic Institutions,Dale Minor,Millard Lampell,John Henry Faulk","Minor, Dale","Lampell, Millard, 1919-1997","Faulk, John Henry",,260,7856,http://www.library.ucsb.edu/speccoll/digital/csdi-audio2.jpg,http://cylinders.library.ucsb.edu/audio/7000/a7856/cusb-a7856b.mp3,29:16:00,Open reel,Dissent;The Media,Dissent;The media,,,Press,,,,,,,,,,,,Center for the Study of Democratic Institutions,Center for the Study of Democratic Institutions,"Center for the Study of Democratic Institutions Collection, 1950-1991 (Mss 18), Department of Special Collections at the University of California, Santa Barbara Library","Bulk of the collection donated by the Center after it ceased operations at UCSB in 1987. Subsequent donations by Harry S. Ashmore and Otis L. Graham, Jr. , which are found in their respective sections of the Administrators' Files, 1995.","Transmission or reproduction of materials protected by copyright beyond that allowed by fair use requires the written permission of the copyright owners. In addition, the reproduction of some materials may be restricted by terms of gift or purchase agreem"
"The U.S. Constitution or Self-Determination for Negroes?, program 264, part a","Excerpts of a discussion on whether the Constitution needs to be revised to better protect minority groups, or whether African-Americans must choose to fight for independent nationhood. Featuring Robert Bailey, Dennis Dunn, E. N. Easley, Russ Ellis, Ed Engberg, W. H. Ferry, Robert Hall, Robert Hibbard, Gene Hoffman, Frank K. Kelly, Clarence Price, Lyn Schiflett, John R. Seeley, Ernie Smith, Lou Smith, Rexford G. Tugwell, Palmer Van Grundy, and Cleveland Wallace. Operation Bootstrap III. Feb. 1967.",1967,"Dissent,Government and politics,Race and ethnicity,Center for the Study of Democratic Institutions,Frank K. Kelly,Rexford G. Tugwell,Dennis Dunn,Clarence William Price","Kelly, Frank K., 1914-","Tugwell, Rexford G. (Rexford Guy), 1891-1979","Dunn, Dennis","Price, Clarence William, 1905-",264,7860,http://www.library.ucsb.edu/speccoll/digital/csdi-audio2.jpg,http://cylinders.library.ucsb.edu/audio/7000/a7860/cusb-a7860b.mp3,30:47:00,Open reel,Dissent;Government and Politics;Race and Ethnicity,Dissent;Government and politics;Race and ethnicity,,,,,,,,,Political science,Ethnicity,Race,,,,Center for the Study of Democratic Institutions,Center for the Study of Democratic Institutions,"Center for the Study of Democratic Institutions Collection, 1950-1991 (Mss 18), Department of Special Collections at the University of California, Santa Barbara Library","Bulk of the collection donated by the Center after it ceased operations at UCSB in 1987. Subsequent donations by Harry S. Ashmore and Otis L. Graham, Jr. , which are found in their respective sections of the Administrators' Files, 1995.","Transmission or reproduction of materials protected by copyright beyond that allowed by fair use requires the written permission of the copyright owners. In addition, the reproduction of some materials may be restricted by terms of gift or purchase agreem"
"The U.S. Constitution or Self-Determination for Negroes?, program 264, part b","Excerpts of a discussion on whether the Constitution needs to be revised to better protect minority groups, or whether African-Americans must choose to fight for independent nationhood. Featuring Robert Bailey, Dennis Dunn, E. N. Easley, Russ Ellis, Ed Engberg, W. H. Ferry, Robert Hall, Robert Hibbard, Gene Hoffman, Frank K. Kelly, Clarence Price, Lyn Schiflett, John R. Seeley, Ernie Smith, Lou Smith, Rexford G. Tugwell, Palmer Van Grundy, and Cleveland Wallace. Operation Bootstrap III. Feb. 1967.",1967,"Dissent,Government and politics,Race and ethnicity,Center for the Study of Democratic Institutions,Frank K. Kelly,Rexford G. Tugwell,Dennis Dunn,Clarence William Price","Kelly, Frank K., 1914-","Tugwell, Rexford G. (Rexford Guy), 1891-1979","Dunn, Dennis","Price, Clarence William, 1905-",264,7861,http://www.library.ucsb.edu/speccoll/digital/csdi-audio2.jpg,http://cylinders.library.ucsb.edu/audio/7000/a7861/cusb-a7861b.mp3,26:53:00,Open reel,Dissent;Government and Politics;Race and Ethnicity,Dissent;Government and politics;Race and ethnicity,,,,,,,,,Political science,Ethnicity,Race,,,,Center for the Study of Democratic Institutions,Center for the Study of Democratic Institutions,"Center for the Study of Democratic Institutions Collection, 1950-1991 (Mss 18), Department of Special Collections at the University of California, Santa Barbara Library","Bulk of the collection donated by the Center after it ceased operations at UCSB in 1987. Subsequent donations by Harry S. Ashmore and Otis L. Graham, Jr. , which are found in their respective sections of the Administrators' Files, 1995.","Transmission or reproduction of materials protected by copyright beyond that allowed by fair use requires the written permission of the copyright owners. In addition, the reproduction of some materials may be restricted by terms of gift or purchase agreem"
"A Strategy of Disruption, program 279, part a","Richard Cloward, of Columbia University, examines ways in which the poor -- especially the minority, ghettoized poor -- can find a degree of political and economic power in a racist United States. Followed by discussion. Nov. 17, 1966. ",1966,"Dissent,Race and ethnicity,Center for the Study of Democratic Institutions,Richard A. Cloward","Cloward, Richard A.",,,,279,7882,http://www.library.ucsb.edu/speccoll/digital/csdi-audio2.jpg,http://cylinders.library.ucsb.edu/audio/7000/a7882/cusb-a7882b.mp3,27:14:00,Open reel,Dissent;Race and Ethnicity,Dissent;Race and ethnicity,,,,,,,,,,Ethnicity,Race,,,,Center for the Study of Democratic Institutions,Center for the Study of Democratic Institutions,"Center for the Study of Democratic Institutions Collection, 1950-1991 (Mss 18), Department of Special Collections at the University of California, Santa Barbara Library","Bulk of the collection donated by the Center after it ceased operations at UCSB in 1987. Subsequent donations by Harry S. Ashmore and Otis L. Graham, Jr. , which are found in their respective sections of the Administrators' Files, 1995.","Transmission or reproduction of materials protected by copyright beyond that allowed by fair use requires the written permission of the copyright owners. In addition, the reproduction of some materials may be restricted by terms of gift or purchase agreem"
"A Strategy of Disruption, program 279, part b","Richard Cloward, of Columbia University, examines ways in which the poor -- especially the minority, ghettoized poor -- can find a degree of political and economic power in a racist United States. Followed by discussion. Nov. 17, 1966. ",1966,"Dissent,Race and ethnicity,Center for the Study of Democratic Institutions","Cloward, Richard A.",,,,279,7883,http://www.library.ucsb.edu/speccoll/digital/csdi-audio2.jpg,http://cylinders.library.ucsb.edu/audio/7000/a7883/cusb-a7883b.mp3,25:19:00,Open reel,Dissent;Race and Ethnicity,Dissent;Race and ethnicity,,,,,,,,,,Ethnicity,Race,,,,Center for the Study of Democratic Institutions,Center for the Study of Democratic Institutions,"Center for the Study of Democratic Institutions Collection, 1950-1991 (Mss 18), Department of Special Collections at the University of California, Santa Barbara Library","Bulk of the collection donated by the Center after it ceased operations at UCSB in 1987. Subsequent donations by Harry S. Ashmore and Otis L. Graham, Jr. , which are found in their respective sections of the Administrators' Files, 1995.","Transmission or reproduction of materials protected by copyright beyond that allowed by fair use requires the written permission of the copyright owners. In addition, the reproduction of some materials may be restricted by terms of gift or purchase agreem"
"How the United States Can Get Out of Vietnam, program 286, part a","Former CBS News correspondent David Schoenbrun argues that rising dissent at home and abroad over U.S. policy in Vietnam requires the government to seek an end to the war, and offers his own proposals for a course of action. Followed by discussion. Oct. 16, 1967. ",1967,"Dissent,Social and economic issues,Peace and war,Center for the Study of Democratic Institutions,David Schoenbrun","Schoenbrun, David",,,,286,7895,http://www.library.ucsb.edu/speccoll/digital/csdi-audio2.jpg,http://cylinders.library.ucsb.edu/audio/7000/a7895/cusb-a7895b.mp3,28:17:00,Open reel,Dissent;Social and Economic Issues;Peace and War,Dissent;Social and economic issues;Peace and war,,,,War,Peace,,,,,,,,Economics,Sociology,Center for the Study of Democratic Institutions,Center for the Study of Democratic Institutions,"Center for the Study of Democratic Institutions Collection, 1950-1991 (Mss 18), Department of Special Collections at the University of California, Santa Barbara Library","Bulk of the collection donated by the Center after it ceased operations at UCSB in 1987. Subsequent donations by Harry S. Ashmore and Otis L. Graham, Jr. , which are found in their respective sections of the Administrators' Files, 1995.","Transmission or reproduction of materials protected by copyright beyond that allowed by fair use requires the written permission of the copyright owners. In addition, the reproduction of some materials may be restricted by terms of gift or purchase agreem"
"How the United States Can Get Out of Vietnam, program 286, part b","Former CBS News correspondent David Schoenbrun argues that rising dissent at home and abroad over U.S. policy in Vietnam requires the government to seek an end to the war, and offers his own proposals for a course of action. Followed by discussion. Oct. 16, 1967. ",1967,"Dissent,Social and economic issues,Peace and war,Center for the Study of Democratic Institutions,David Schoenbrun","Schoenbrun, David",,,,286,7896,http://www.library.ucsb.edu/speccoll/digital/csdi-audio2.jpg,http://cylinders.library.ucsb.edu/audio/7000/a7896/cusb-a7896b.mp3,28:38:00,Open reel,Dissent;Social and Economic Issues;Peace and War,Dissent;Social and economic issues;Peace and war,,,,War,Peace,,,,,,,,Economics,Sociology,Center for the Study of Democratic Institutions,Center for the Study of Democratic Institutions,"Center for the Study of Democratic Institutions Collection, 1950-1991 (Mss 18), Department of Special Collections at the University of California, Santa Barbara Library","Bulk of the collection donated by the Center after it ceased operations at UCSB in 1987. Subsequent donations by Harry S. Ashmore and Otis L. Graham, Jr. , which are found in their respective sections of the Administrators' Files, 1995.","Transmission or reproduction of materials protected by copyright beyond that allowed by fair use requires the written permission of the copyright owners. In addition, the reproduction of some materials may be restricted by terms of gift or purchase agreem"
"The Fire This Time: What Happened in Watts?, program 309, part a","Trevor Thomas presents a documentary of the five-day uprising in the Watts neighborhood of Los Angeles during the summer of 1965, which heralded the beginning of a new era of black protest, using excerpts of eyewitness reports, news broadcasts, speeches, and official statements made at the time. [ca. 1965-1966]. ",ca. 1965-1966,"Dissent,Race and ethnicity,Center for the Study of Democratic Institutions",,,,,309,7930.1,http://www.library.ucsb.edu/speccoll/digital/csdi-audio2.jpg,http://cylinders.library.ucsb.edu/audio/7000/a7930.1/cusb-a7930.1b.mp3,29:36:00,Open reel,Dissent;Race and Ethnicity,Dissent;Race and ethnicity,,,,,,,,,,Ethnicity,Race,,,,Center for the Study of Democratic Institutions,Center for the Study of Democratic Institutions,"Center for the Study of Democratic Institutions Collection, 1950-1991 (Mss 18), Department of Special Collections at the University of California, Santa Barbara Library","Bulk of the collection donated by the Center after it ceased operations at UCSB in 1987. Subsequent donations by Harry S. Ashmore and Otis L. Graham, Jr. , which are found in their respective sections of the Administrators' Files, 1995.","Transmission or reproduction of materials protected by copyright beyond that allowed by fair use requires the written permission of the copyright owners. In addition, the reproduction of some materials may be restricted by terms of gift or purchase agreem"
"The Fire This Time: What Happened in Watts?, program 309, part b","Trevor Thomas presents a documentary of the five-day uprising in the Watts neighborhood of Los Angeles during the summer of 1965, which heralded the beginning of a new era of black protest, using excerpts of eyewitness reports, news broadcasts, speeches, and official statements made at the time. [ca. 1965-1966]. ",ca. 1965-1966,"Dissent,Race and ethnicity,Center for the Study of Democratic Institutions",,,,,309,7930.2,http://www.library.ucsb.edu/speccoll/digital/csdi-audio2.jpg,http://cylinders.library.ucsb.edu/audio/7000/a7930.2/cusb-a7930.2b.mp3,26:11:00,Open reel,Dissent;Race and Ethnicity,Dissent;Race and ethnicity,,,,,,,,,,Ethnicity,Race,,,,Center for the Study of Democratic Institutions,Center for the Study of Democratic Institutions,"Center for the Study of Democratic Institutions Collection, 1950-1991 (Mss 18), Department of Special Collections at the University of California, Santa Barbara Library","Bulk of the collection donated by the Center after it ceased operations at UCSB in 1987. Subsequent donations by Harry S. Ashmore and Otis L. Graham, Jr. , which are found in their respective sections of the Administrators' Files, 1995.","Transmission or reproduction of materials protected by copyright beyond that allowed by fair use requires the written permission of the copyright owners. In addition, the reproduction of some materials may be restricted by terms of gift or purchase agreem"
"The Minor Majority, program 407, part a","In this discussion from a Center conference, both college students and Center fellows question the ends to which the youth of America can or should put their newfound political power. Featuring Jeffrey Alexander, Frank Bardacke, John Blood, Ewart F. Brown, Kristin G. Cleage, Jeffrey Elman, W. H. Ferry, Michael Goldfield, Michael Higgins, Hallock Hoffman, Devereaux Kennedy, Sheila Langdon, Michael Lerner, Bruce Levine, Peter Lyman, Robert Pardun, Frederick Richman, Stephen Saltonstall, Daniel Sisson, and Stanley Wise. Students and Society I. Aug. 1967. ",1967,"Dissent,Education,Center for the Study of Democratic Institutions,Jeffrey C. Alexander,Frank Bardacke,W. H. (Wilbur Hugh) Ferry,Hallock B. Huffman","Alexander, Jeffrey C., 1947-","Bardacke, Frank","Ferry, W. H. (Wilbur Hugh)","Hoffman, Hallock B.",407,7959,http://www.library.ucsb.edu/speccoll/digital/csdi-audio2.jpg,http://cylinders.library.ucsb.edu/audio/7000/a7959/cusb-a7959b.mp3,,Open reel,Dissent;Education,Dissent;Education,,,,,,,,,,,,,,,Center for the Study of Democratic Institutions,Center for the Study of Democratic Institutions,"Center for the Study of Democratic Institutions Collection, 1950-1991 (Mss 18), Department of Special Collections at the University of California, Santa Barbara Library","Bulk of the collection donated by the Center after it ceased operations at UCSB in 1987. Subsequent donations by Harry S. Ashmore and Otis L. Graham, Jr. , which are found in their respective sections of the Administrators' Files, 1995.","Transmission or reproduction of materials protected by copyright beyond that allowed by fair use requires the written permission of the copyright owners. In addition, the reproduction of some materials may be restricted by terms of gift or purchase agreem"
"The Minor Majority, program 407, part b","In this discussion from a Center conference, both college students and Center fellows question the ends to which the youth of America can or should put their newfound political power. Featuring Jeffrey Alexander, Frank Bardacke, John Blood, Ewart F. Brown, Kristin G. Cleage, Jeffrey Elman, W. H. Ferry, Michael Goldfield, Michael Higgins, Hallock Hoffman, Devereaux Kennedy, Sheila Langdon, Michael Lerner, Bruce Levine, Peter Lyman, Robert Pardun, Frederick Richman, Stephen Saltonstall, Daniel Sisson, and Stanley Wise. Students and Society I. Aug. 1967. ",1967,"Dissent,Education,Center for the Study of Democratic Institutions,Jeffrey C. Alexander,Frank Bardacke,W. H. (Wilbur Hugh) Ferry,Hallock B. Huffman","Alexander, Jeffrey C., 1947-","Bardacke, Frank","Ferry, W. H. (Wilbur Hugh)","Hoffman, Hallock B.",407,7960,http://www.library.ucsb.edu/speccoll/digital/csdi-audio2.jpg,http://cylinders.library.ucsb.edu/audio/7000/a7960/cusb-a7960b.mp3,,Open reel,Dissent;Education,Dissent;Education,,,,,,,,,,,,,,,Center for the Study of Democratic Institutions,Center for the Study of Democratic Institutions,"Center for the Study of Democratic Institutions Collection, 1950-1991 (Mss 18), Department of Special Collections at the University of California, Santa Barbara Library","Bulk of the collection donated by the Center after it ceased operations at UCSB in 1987. Subsequent donations by Harry S. Ashmore and Otis L. Graham, Jr. , which are found in their respective sections of the Administrators' Files, 1995.","Transmission or reproduction of materials protected by copyright beyond that allowed by fair use requires the written permission of the copyright owners. In addition, the reproduction of some materials may be restricted by terms of gift or purchase agreem"
"Campus Unrest -- What Is It About?, program 408, part a","College students and Center fellows discuss the growing attitude that universities are instruments of the ruling classes used to train the ablest young people to carry on a system which the young people regard as immoral and destructive of human dignity, and whether the university can be changed without first destroying the institution itself. Featuring Jeffrey Alexander, Frank Bardacke, John Blood, Ewart F. Brown, Jeffrey Elman, Michael Goldfield, Hallock Hoffman, Robert M. Hutchins, Devereaux Kennedy, Michael Lerner, Bruce Levine, Peter Lyman, Mary Quinn, Frederick Richman, Stephen Saltonstall, David Seeley, Daniel Sisson, and Stanley Wise. Students and Society II. Aug. 1967. ",1967,"Dissent,Education,Center for the Study of Democratic Institutions,Jeffrey C. Alexander,Frank Bardacke,Devereaux Kennedy,Hallock B. Hoffman","Alexander, Jeffrey C., 1947-","Bardacke, Frank","Kennedy, Devereaux","Hoffman, Hallock B.",408,7961,http://www.library.ucsb.edu/speccoll/digital/csdi-audio2.jpg,http://cylinders.library.ucsb.edu/audio/7000/a7961/cusb-a7961b.mp3,,Open reel,Dissent;Education,Dissent;Education,,,,,,,,,,,,,,,Center for the Study of Democratic Institutions,Center for the Study of Democratic Institutions,"Center for the Study of Democratic Institutions Collection, 1950-1991 (Mss 18), Department of Special Collections at the University of California, Santa Barbara Library","Bulk of the collection donated by the Center after it ceased operations at UCSB in 1987. Subsequent donations by Harry S. Ashmore and Otis L. Graham, Jr. , which are found in their respective sections of the Administrators' Files, 1995.","Transmission or reproduction of materials protected by copyright beyond that allowed by fair use requires the written permission of the copyright owners. In addition, the reproduction of some materials may be restricted by terms of gift or purchase agreem"
"Campus Unrest -- What Is It About?, program 408, part b","College students and Center fellows discuss the growing attitude that universities are instruments of the ruling classes used to train the ablest young people to carry on a system which the young people regard as immoral and destructive of human dignity, and whether the university can be changed without first destroying the institution itself. Featuring Jeffrey Alexander, Frank Bardacke, John Blood, Ewart F. Brown, Jeffrey Elman, Michael Goldfield, Hallock Hoffman, Robert M. Hutchins, Devereaux Kennedy, Michael Lerner, Bruce Levine, Peter Lyman, Mary Quinn, Frederick Richman, Stephen Saltonstall, David Seeley, Daniel Sisson, and Stanley Wise. Students and Society II. Aug. 1967. ",1967,"Dissent,Education,Center for the Study of Democratic Institutions,Jeffrey C. Alexander,Frank Bardacke,Devereaux Kennedy,Hallock B. Hoffman",,,,,408,7962,http://www.library.ucsb.edu/speccoll/digital/csdi-audio2.jpg,http://cylinders.library.ucsb.edu/audio/7000/a7962/cusb-a7962b.mp3,,Open reel,Dissent;Education,Dissent;Education,,,,,,,,,,,,,,,Center for the Study of Democratic Institutions,Center for the Study of Democratic Institutions,"Center for the Study of Democratic Institutions Collection, 1950-1991 (Mss 18), Department of Special Collections at the University of California, Santa Barbara Library","Bulk of the collection donated by the Center after it ceased operations at UCSB in 1987. Subsequent donations by Harry S. Ashmore and Otis L. Graham, Jr. , which are found in their respective sections of the Administrators' Files, 1995.","Transmission or reproduction of materials protected by copyright beyond that allowed by fair use requires the written permission of the copyright owners. In addition, the reproduction of some materials may be restricted by terms of gift or purchase agreem"
"Cop Out, Opt Out, or Knock Out, program 409, part a","In this discussion, college students debate the notion of effecting political change through mass campaigns of non-cooperation or outright disruption aimed at crippling society, but when pressed are unable to articulate their vision of the more just and humane society to follow should they succeed. Featuring Ewart F. Brown, Michael Goldfield, Hallock Hoffman, Robert M. Hutchins, and Frederick Richman. Students and Society III. Aug. 1967. ",1967,"Dissent,Education,Center for the Study of Democratic Institutions,Michael Goldfield,Hallock B. Hoffman,Robert Maynard Hutchins","Goldfield, Michael","Hoffman, Hallock B.","Hutchins, Robert Maynard, 1899-1977",,409,7963,http://www.library.ucsb.edu/speccoll/digital/csdi-audio2.jpg,http://cylinders.library.ucsb.edu/audio/7000/a7963/cusb-a7963b.mp3,,Open reel,Dissent;Education,Dissent;Education,,,,,,,,,,,,,,,Center for the Study of Democratic Institutions,Center for the Study of Democratic Institutions,"Center for the Study of Democratic Institutions Collection, 1950-1991 (Mss 18), Department of Special Collections at the University of California, Santa Barbara Library","Bulk of the collection donated by the Center after it ceased operations at UCSB in 1987. Subsequent donations by Harry S. Ashmore and Otis L. Graham, Jr. , which are found in their respective sections of the Administrators' Files, 1995.","Transmission or reproduction of materials protected by copyright beyond that allowed by fair use requires the written permission of the copyright owners. In addition, the reproduction of some materials may be restricted by terms of gift or purchase agreem"
"Cop Out, Opt Out, or Knock Out, program 409, part b","In this discussion, college students debate the notion of effecting political change through mass campaigns of non-cooperation or outright disruption aimed at crippling society, but when pressed are unable to articulate their vision of the more just and humane society to follow should they succeed. Featuring Ewart F. Brown, Michael Goldfield, Hallock Hoffman, Robert M. Hutchins, and Frederick Richman. Students and Society III. Aug. 1967. ",1967,"Dissent,Education,Center for the Study of Democratic Institutions","Goldfield, Michael","Hoffman, Hallock B.","Hutchins, Robert Maynard, 1899-1977",,409,7964,http://www.library.ucsb.edu/speccoll/digital/csdi-audio2.jpg,http://cylinders.library.ucsb.edu/audio/7000/a7964/cusb-a7964b.mp3,,Open reel,Dissent;Education,Dissent;Education,,,,,,,,,,,,,,,Center for the Study of Democratic Institutions,Center for the Study of Democratic Institutions,"Center for the Study of Democratic Institutions Collection, 1950-1991 (Mss 18), Department of Special Collections at the University of California, Santa Barbara Library","Bulk of the collection donated by the Center after it ceased operations at UCSB in 1987. Subsequent donations by Harry S. Ashmore and Otis L. Graham, Jr. , which are found in their respective sections of the Administrators' Files, 1995.","Transmission or reproduction of materials protected by copyright beyond that allowed by fair use requires the written permission of the copyright owners. In addition, the reproduction of some materials may be restricted by terms of gift or purchase agreem"
"Escalation in Alienation, program 410, part a","On the final day of the conference, several Center fellows join the debate to either offer the college students their sympathy and support or to express their disappointment and dismay. Featuring Jeffrey Alexander, Frank Bardacke, Stringfellow Barr, John Blood, Ewart F. Brown, Scott Buchanan, W. H. Ferry, Michael Goldfield, Hallock Hoffman, Robert M. Hutchins, Devereaux Kennedy, Sheila Langdon, Michael Lerner, Bruce Levine, Richard Lichtman, James A. Pike, Frederick Richman, John Seeley, Rexford G. Tugwell, Harvey Wheeler, John Wilkinson, and Stanley Wise. Students and Society IV. Aug. 25, 1967. ",1967,"Dissent,Education,Center for the Study of Democratic Institutions,Michael Goldfield,Hallock B. Hoffman,Robert Maynard Hutchins,Devereaux Kennedy","Goldfield, Michael","Hoffman, Hallock B.","Hutchins, Robert Maynard, 1899-1977","Kennedy, Devereaux",410,7965,http://www.library.ucsb.edu/speccoll/digital/csdi-audio2.jpg,http://cylinders.library.ucsb.edu/audio/7000/a7965/cusb-a7965b.mp3,,Open reel,Dissent;Education,Dissent;Education,,,,,,,,,,,,,,,Center for the Study of Democratic Institutions,Center for the Study of Democratic Institutions,"Center for the Study of Democratic Institutions Collection, 1950-1991 (Mss 18), Department of Special Collections at the University of California, Santa Barbara Library","Bulk of the collection donated by the Center after it ceased operations at UCSB in 1987. Subsequent donations by Harry S. Ashmore and Otis L. Graham, Jr. , which are found in their respective sections of the Administrators' Files, 1995.","Transmission or reproduction of materials protected by copyright beyond that allowed by fair use requires the written permission of the copyright owners. In addition, the reproduction of some materials may be restricted by terms of gift or purchase agreem"
"Escalation in Alienation, program 410, part b","On the final day of the conference, several Center fellows join the debate to either offer the college students their sympathy and support or to express their disappointment and dismay. Featuring Jeffrey Alexander, Frank Bardacke, Stringfellow Barr, John Blood, Ewart F. Brown, Scott Buchanan, W. H. Ferry, Michael Goldfield, Hallock Hoffman, Robert M. Hutchins, Devereaux Kennedy, Sheila Langdon, Michael Lerner, Bruce Levine, Richard Lichtman, James A. Pike, Frederick Richman, John Seeley, Rexford G. Tugwell, Harvey Wheeler, John Wilkinson, and Stanley Wise. Students and Society IV. Aug. 25, 1967. ",1967,"Dissent,Education,Center for the Study of Democratic Institutions,Michael Goldfield,Hallock B. Hoffman,Robert Maynard Hutchins,Devereaux Kennedy","Goldfield, Michael","Hoffman, Hallock B.","Hutchins, Robert Maynard, 1899-1977","Kennedy, Devereaux",410,7966,http://www.library.ucsb.edu/speccoll/digital/csdi-audio2.jpg,http://cylinders.library.ucsb.edu/audio/7000/a7966/cusb-a7966b.mp3,,Open reel,Dissent;Education,Dissent;Education,,,,,,,,,,,,,,,Center for the Study of Democratic Institutions,Center for the Study of Democratic Institutions,"Center for the Study of Democratic Institutions Collection, 1950-1991 (Mss 18), Department of Special Collections at the University of California, Santa Barbara Library","Bulk of the collection donated by the Center after it ceased operations at UCSB in 1987. Subsequent donations by Harry S. Ashmore and Otis L. Graham, Jr. , which are found in their respective sections of the Administrators' Files, 1995.","Transmission or reproduction of materials protected by copyright beyond that allowed by fair use requires the written permission of the copyright owners. In addition, the reproduction of some materials may be restricted by terms of gift or purchase agreem"
"History and the Hippies, program 428, part a","Historian Arnold J. Toynbee speaks with Scott Buchanan, Raghavan Iyer, and John R. Seeley about the unlearned lessons of history, the futility of patriotism, and his admiration for the hippie movement. May 1, 1967. ",1967,"Dissent,Social and economic issues,Center for the Study of Democratic Institutions,Arnold Toynbee,Scott Milross Buchanan,Raghavan Narasimhan Iyer,John R. Seeley","Toynbee, Arnold, 1889-1975","Buchanan, Scott Milross, 1895-1968","Iyer, Raghavan Narasimhan","Seeley, John R.",428,6684,http://www.library.ucsb.edu/speccoll/digital/csdi-audio2.jpg,http://cylinders.library.ucsb.edu/audio/6000/a6684/cusb-a6684b.mp3,22:08,Open reel,Dissent;Social and Economic Issues,Dissent;Social and economic issues,,,,,,,,,,,,,Economics,Sociology,Center for the Study of Democratic Institutions,Center for the Study of Democratic Institutions,"Center for the Study of Democratic Institutions Collection, 1950-1991 (Mss 18), Department of Special Collections at the University of California, Santa Barbara Library","Bulk of the collection donated by the Center after it ceased operations at UCSB in 1987. Subsequent donations by Harry S. Ashmore and Otis L. Graham, Jr. , which are found in their respective sections of the Administrators' Files, 1995.","Transmission or reproduction of materials protected by copyright beyond that allowed by fair use requires the written permission of the copyright owners. In addition, the reproduction of some materials may be restricted by terms of gift or purchase agreem"
"History and the Hippies, program 428, part b","Historian Arnold J. Toynbee speaks with Scott Buchanan, Raghavan Iyer, and John R. Seeley about the unlearned lessons of history, the futility of patriotism, and his admiration for the hippie movement. May 1, 1967. ",1967,"Dissent,Social and economic issues,Center for the Study of Democratic Institutions,Arnold Toynbee,Scott Milross Buchanan,Raghavan Narasimhan Iyer,John R. Seeley","Toynbee, Arnold, 1889-1975","Buchanan, Scott Milross, 1895-1968","Iyer, Raghavan Narasimhan","Seeley, John R.",428,6685,http://www.library.ucsb.edu/speccoll/digital/csdi-audio2.jpg,http://cylinders.library.ucsb.edu/audio/6000/a6685/cusb-a6685b.mp3,21:56,Open reel,Dissent;Social and Economic Issues,Dissent;Social and economic issues,,,,,,,,,,,,,Economics,Sociology,Center for the Study of Democratic Institutions,Center for the Study of Democratic Institutions,"Center for the Study of Democratic Institutions Collection, 1950-1991 (Mss 18), Department of Special Collections at the University of California, Santa Barbara Library","Bulk of the collection donated by the Center after it ceased operations at UCSB in 1987. Subsequent donations by Harry S. Ashmore and Otis L. Graham, Jr. , which are found in their respective sections of the Administrators' Files, 1995.","Transmission or reproduction of materials protected by copyright beyond that allowed by fair use requires the written permission of the copyright owners. In addition, the reproduction of some materials may be restricted by terms of gift or purchase agreem"
"The Bishop Is Expelled, program 429","Episcopal bishop C. Edward Crowther testifies before the United Nations, giving a personal account of his experiences as a white man living and working in South Africa under apartheid, and the events that led to his expulsion as bishop of Kimberley and Kuruman and subsequent deportation. May 1967. ",1967,"Dissent,International issues,Religion,Center for the Study of Democratic InstitutionsEdward (Clarence Edward) Crowther","Crowther, C. Edward (Clarence Edward), 1929-",,,,429,7955,http://www.library.ucsb.edu/speccoll/digital/csdi-audio2.jpg,http://cylinders.library.ucsb.edu/audio/7000/a7955/cusb-a7955b.mp3,,Open reel,Dissent;International Issues;Religion,Dissent;International issues;Religion,,,,,,,,,,,,Religion,,,Center for the Study of Democratic Institutions,Center for the Study of Democratic Institutions,"Center for the Study of Democratic Institutions Collection, 1950-1991 (Mss 18), Department of Special Collections at the University of California, Santa Barbara Library","Bulk of the collection donated by the Center after it ceased operations at UCSB in 1987. Subsequent donations by Harry S. Ashmore and Otis L. Graham, Jr. , which are found in their respective sections of the Administrators' Files, 1995.","Transmission or reproduction of materials protected by copyright beyond that allowed by fair use requires the written permission of the copyright owners. In addition, the reproduction of some materials may be restricted by terms of gift or purchase agreem"
"I Shall Die But That Is All I Shall Do for Death, part a, program 435","Dr. Martin Luther King, Jr., James Farmer, and Bishop C. Edward Crowther each deliver a brief speech at the Center's Pacem in Terris II convocation in Geneva, Switzerland, calling for an end to genocide both at home and abroad. May 1967. ",1967,"Dissent,Race and ethnicity,Center for the Study of Democratic Institutions,Martin Luther King Jr.,C. Edward (Clarence Edward) Crowther,James Farmer","King, Martin Luther, Jr., 1929-1968","Crowther, C. Edward (Clarence Edward), 1929-","Farmer, James, 1920-1999",,435,8003,http://www.library.ucsb.edu/speccoll/digital/csdi-audio2.jpg,http://cylinders.library.ucsb.edu/audio/8000/a8003/cusb-a8003b.mp3,,Open reel,Dissent;Race and Ethnicity,Dissent;Race and ethnicity,,,,,,,,,,Ethnicity,Race,,,,Center for the Study of Democratic Institutions,Center for the Study of Democratic Institutions,"Center for the Study of Democratic Institutions Collection, 1950-1991 (Mss 18), Department of Special Collections at the University of California, Santa Barbara Library","Bulk of the collection donated by the Center after it ceased operations at UCSB in 1987. Subsequent donations by Harry S. Ashmore and Otis L. Graham, Jr. , which are found in their respective sections of the Administrators' Files, 1995.","Transmission or reproduction of materials protected by copyright beyond that allowed by fair use requires the written permission of the copyright owners. In addition, the reproduction of some materials may be restricted by terms of gift or purchase agreem"
"Limits of Dissent, program 450","Five Center fellows attempt to answer the question: If actions such as sit-ins and mass demonstrations are protected by the First Amendment, then what are the acceptable limits of dissent in the United States? With Harry S. Ashmore, Harrop A. Freeman, Robert M. Hutchins, James A. Pike, and Rexford G. Tugwell. Nov. 1968. ",1968,"Dissent,Center for the Study of Democratic Institutions,Harry S. Ashmore,Harrop A. (Harrop Arthur) Freeman,Robert Maynard Hutchins,James A. (James Albert) Pike","Ashmore, Harry S.","Freeman, Harrop A. (Harrop Arthur), 1907-1993","Hutchins, Robert Maynard, 1899-1977","Pike, James A. (James Albert), 1913-1969",450,8025,http://www.library.ucsb.edu/speccoll/digital/csdi-audio2.jpg,http://cylinders.library.ucsb.edu/audio/8000/a8025/cusb-a8025b.mp3,,Open reel,Dissent,Dissent,,,,,,,,,,,,,,,Center for the Study of Democratic Institutions,Center for the Study of Democratic Institutions,"Center for the Study of Democratic Institutions Collection, 1950-1991 (Mss 18), Department of Special Collections at the University of California, Santa Barbara Library","Bulk of the collection donated by the Center after it ceased operations at UCSB in 1987. Subsequent donations by Harry S. Ashmore and Otis L. Graham, Jr. , which are found in their respective sections of the Administrators' Files, 1995.","Transmission or reproduction of materials protected by copyright beyond that allowed by fair use requires the written permission of the copyright owners. In addition, the reproduction of some materials may be restricted by terms of gift or purchase agreem"
"Czechoslovakia: The Art of the Impossible, program 455, part a",Author and educator Milton Mayer discusses the Good Soldier Schweik technique of unarmed resistance used by the Czechs to undermine and frustrate the Russian invasion of their country in the summer of 1968. Followed by discussion. Dec. 1968. ,1968,"Dissent,International issues,Peace and war,Center for the Study of Democratic Institutions,Milton Sanford Mayer","Mayer, Milton Sanford, 1908-",,,,455,8033,http://www.library.ucsb.edu/speccoll/digital/csdi-audio2.jpg,http://cylinders.library.ucsb.edu/audio/8000/a8033/cusb-a8033b.mp3,29:16:00,Open reel,Dissent;International Issues;Peace and War,Dissent;International issues;Peace and war,,,,War,Peace,,,,,,,,,,Center for the Study of Democratic Institutions,Center for the Study of Democratic Institutions,"Center for the Study of Democratic Institutions Collection, 1950-1991 (Mss 18), Department of Special Collections at the University of California, Santa Barbara Library","Bulk of the collection donated by the Center after it ceased operations at UCSB in 1987. Subsequent donations by Harry S. Ashmore and Otis L. Graham, Jr. , which are found in their respective sections of the Administrators' Files, 1995.","Transmission or reproduction of materials protected by copyright beyond that allowed by fair use requires the written permission of the copyright owners. In addition, the reproduction of some materials may be restricted by terms of gift or purchase agreem"
"Czechoslovakia: The Art of the Impossible, program 455, part b",Author and educator Milton Mayer discusses the Good Soldier Schweik technique of unarmed resistance used by the Czechs to undermine and frustrate the Russian invasion of their country in the summer of 1968. Followed by discussion. Dec. 1968. ,1968,"Dissent,International issues,Peace and war,Center for the Study of Democratic Institutions,Milton Sanford Mayer","Mayer, Milton Sanford, 1908-",,,,455,8034,http://www.library.ucsb.edu/speccoll/digital/csdi-audio2.jpg,http://cylinders.library.ucsb.edu/audio/8000/a8034/cusb-a8034b.mp3,22:21,Open reel,Dissent;International Issues;Peace and War,Dissent;International issues;Peace and war,,,,War,Peace,,,,,,,,,,Center for the Study of Democratic Institutions,Center for the Study of Democratic Institutions,"Center for the Study of Democratic Institutions Collection, 1950-1991 (Mss 18), Department of Special Collections at the University of California, Santa Barbara Library","Bulk of the collection donated by the Center after it ceased operations at UCSB in 1987. Subsequent donations by Harry S. Ashmore and Otis L. Graham, Jr. , which are found in their respective sections of the Administrators' Files, 1995.","Transmission or reproduction of materials protected by copyright beyond that allowed by fair use requires the written permission of the copyright owners. In addition, the reproduction of some materials may be restricted by terms of gift or purchase agreem"
"Creative Non-Violence, program 457",Agricultural workers' union organizer Cesar Chavez speaks informally with the Center staff about his views on matters ranging from the future problems of automated picking to the diminishing sense of community brought about by union successes. Nov. 1968. ,1968,"Dissent,Peace and war,Race and ethnicity,Social and economic issues,Center for the Study of Democratic Institutions",,,,,457,8037,http://www.library.ucsb.edu/speccoll/digital/csdi-audio2.jpg,http://cylinders.library.ucsb.edu/audio/8000/a8037/cusb-a8037b.mp3,19:51,Open reel,Dissent;Peace and War;Race and Ethnicity;Social and Economic Issues,Dissent;Peace and war;Race and ethnicity;Social and economic issues,,,,War,Peace,,,,,Ethnicity,Race,,Economics,Sociology,Center for the Study of Democratic Institutions,Center for the Study of Democratic Institutions,"Center for the Study of Democratic Institutions Collection, 1950-1991 (Mss 18), Department of Special Collections at the University of California, Santa Barbara Library","Bulk of the collection donated by the Center after it ceased operations at UCSB in 1987. Subsequent donations by Harry S. Ashmore and Otis L. Graham, Jr. , which are found in their respective sections of the Administrators' Files, 1995.","Transmission or reproduction of materials protected by copyright beyond that allowed by fair use requires the written permission of the copyright owners. In addition, the reproduction of some materials may be restricted by terms of gift or purchase agreem"
"Dissent in Action, program 494","Former U.S. Attorney General Ramsey Clark talks with the Center's Donald McDonald about the necessity for advancing social justice as well as legal justice, and states that while the individual's right to dissent must be tolerated, if the individual, in doing what he thinks is right, is in violation of the law, then he must be prepared to pay the price of the law. Feb. 19, 1970. ",1970,"Dissent,Law and order,Social and economic issues,Center for the Study of Democratic Institutions,Ramsey Clark,Donald McDonald","Clark, Ramsey, 1927-","McDonald, Donald, 1920-",,,494,8090,http://www.library.ucsb.edu/speccoll/digital/csdi-audio2.jpg,http://cylinders.library.ucsb.edu/audio/8000/a8090/cusb-a8090b.mp3,29:09:00,Open reel,Dissent;Law and Order;Social and Economic Issues,Dissent;Law and order;Social and economic issues,,Law and order,,,,,,,,,,,Economics,Sociology,Center for the Study of Democratic Institutions,Center for the Study of Democratic Institutions,"Center for the Study of Democratic Institutions Collection, 1950-1991 (Mss 18), Department of Special Collections at the University of California, Santa Barbara Library","Bulk of the collection donated by the Center after it ceased operations at UCSB in 1987. Subsequent donations by Harry S. Ashmore and Otis L. Graham, Jr. , which are found in their respective sections of the Administrators' Files, 1995.","Transmission or reproduction of materials protected by copyright beyond that allowed by fair use requires the written permission of the copyright owners. In addition, the reproduction of some materials may be restricted by terms of gift or purchase agreem"
"What Can the Individual Do Against the Power of the State?, program 542","A symposium on questions of the nature of dissent when laws run counter to the demands of liberty. Participants include: Stephen Carey, Ramsey Clark, William Sloane Coffin, Crane Haussamen, Milton Mayer, Lewis Pollack, Sander Vanocur, and Piers von Simson. Dec. 9, 1969. ",1969,"Dissent,Government and politics,Center for the Study of Democratic Institutions,Ramsey Clark,William Sloane Coffin,Crane Haussamen,Vanocur, Sander","Clark, Ramsey, 1927-","Coffin, William Sloane","Haussamen, Crane","Vanocur, Sander",542,8153,http://www.library.ucsb.edu/speccoll/digital/csdi-audio2.jpg,http://cylinders.library.ucsb.edu/audio/8000/a8153/cusb-a8153b.mp3,29:09:00,Open reel,Dissent;Government and Politics,Dissent;Government and politics,,,,,,,,,Political science,,,,,,Center for the Study of Democratic Institutions,Center for the Study of Democratic Institutions,"Center for the Study of Democratic Institutions Collection, 1950-1991 (Mss 18), Department of Special Collections at the University of California, Santa Barbara Library","Bulk of the collection donated by the Center after it ceased operations at UCSB in 1987. Subsequent donations by Harry S. Ashmore and Otis L. Graham, Jr. , which are found in their respective sections of the Administrators' Files, 1995.","Transmission or reproduction of materials protected by copyright beyond that allowed by fair use requires the written permission of the copyright owners. In addition, the reproduction of some materials may be restricted by terms of gift or purchase agreem"
